1. Summary
Meeting title	AWS Glue Catalog + Athena
Attended participants	8
Start time	6/23/22, 10:31:55 AM
End time	6/23/22, 11:59:44 AM
Meeting duration	1h 27m 49s
Average attendance time	1h 26m 36s

2. Participants
Name	First join	Last leave	In-meeting duration	Email	Participant ID (UPN)	Role
Maria Marquina Guevara	6/23/22, 10:32:00 AM	6/23/22, 11:59:43 AM	1h 27m 42s	Maria.Marquina@fundacion-jala.org	Maria.Marquina@fundacion-jala.org	Organizer
Luis Becerra Vazquez	6/23/22, 10:32:39 AM	6/23/22, 11:59:44 AM	1h 27m 4s	Luis.Becerra@jala-foundation.org	Luis.Becerra@jala-foundation.org	Presenter
Leonardo Villalba Ferrer	6/23/22, 10:32:41 AM	6/23/22, 11:59:43 AM	1h 27m 1s	Leonardo.Villalba@jala-foundation.org	Leonardo.Villalba@jala-foundation.org	Presenter
Joaquin Aman Alvarez	6/23/22, 10:32:55 AM	6/23/22, 11:59:42 AM	1h 26m 47s	Joaquin.Aman@jala-foundation.org	Joaquin.Aman@jala-foundation.org	Presenter
Martin Gonzalez Torrilla	6/23/22, 10:33:01 AM	6/23/22, 11:59:41 AM	1h 26m 39s	Martin.Gonzalez@jala-foundation.org	Martin.Gonzalez@jala-foundation.org	Presenter
Kevin Cardenas Rodriguez	6/23/22, 10:33:02 AM	6/23/22, 11:59:44 AM	1h 26m 41s	Kevin.Cardenas@jala-foundation.org	Kevin.Cardenas@jala-foundation.org	Presenter
Martin Pavesio Sabini	6/23/22, 10:33:05 AM	6/23/22, 11:59:44 AM	1h 26m 38s	Martin.Pavesio@jala-foundation.org	Martin.Pavesio@jala-foundation.org	Presenter
Cesar Illanes Argote	6/23/22, 10:33:26 AM	6/23/22, 11:57:46 AM	1h 24m 19s	Cesar.Illanes@jala-foundation.org	Cesar.Illanes@jala-foundation.org	Presenter

3. In-Meeting activities
Name	Join time	Leave time	Duration	Email	Role
Maria Marquina Guevara	6/23/22, 10:32:00 AM	6/23/22, 11:59:43 AM	1h 27m 42s	Maria.Marquina@fundacion-jala.org	Organizer
Luis Becerra Vazquez	6/23/22, 10:32:39 AM	6/23/22, 11:59:44 AM	1h 27m 4s	Luis.Becerra@jala-foundation.org	Presenter
Leonardo Villalba Ferrer	6/23/22, 10:32:41 AM	6/23/22, 11:59:43 AM	1h 27m 1s	Leonardo.Villalba@jala-foundation.org	Presenter
Joaquin Aman Alvarez	6/23/22, 10:32:55 AM	6/23/22, 11:59:42 AM	1h 26m 47s	Joaquin.Aman@jala-foundation.org	Presenter
Martin Gonzalez Torrilla	6/23/22, 10:33:01 AM	6/23/22, 11:59:41 AM	1h 26m 39s	Martin.Gonzalez@jala-foundation.org	Presenter
Kevin Cardenas Rodriguez	6/23/22, 10:33:02 AM	6/23/22, 11:59:44 AM	1h 26m 41s	Kevin.Cardenas@jala-foundation.org	Presenter
Martin Pavesio Sabini	6/23/22, 10:33:05 AM	6/23/22, 11:59:44 AM	1h 26m 38s	Martin.Pavesio@jala-foundation.org	Presenter
Cesar Illanes Argote	6/23/22, 10:33:26 AM	6/23/22, 11:57:46 AM	1h 24m 19s	Cesar.Illanes@jala-foundation.org	Presenter
