1. Summary
Meeting title	AWS Glue Catalog + Athena
Attended participants	8
Start time	6/17/22, 10:29:31 AM
End time	6/17/22, 12:20:39 PM
Meeting duration	1h 51m 8s
Average attendance time	1h 36m 22s

2. Participants
Name	First join	Last leave	In-meeting duration	Email	Participant ID (UPN)	Role
Maria Marquina Guevara	6/17/22, 10:29:37 AM	6/17/22, 12:20:35 PM	1h 50m 57s	Maria.Marquina@fundacion-jala.org	Maria.Marquina@fundacion-jala.org	Organizer
Joaquin Aman Alvarez	6/17/22, 10:33:17 AM	6/17/22, 12:20:38 PM	1h 47m 20s	Joaquin.Aman@jala-foundation.org	Joaquin.Aman@jala-foundation.org	Presenter
Kevin Cardenas Rodriguez	6/17/22, 10:34:21 AM	6/17/22, 12:20:36 PM	1h 46m 14s	Kevin.Cardenas@jala-foundation.org	Kevin.Cardenas@jala-foundation.org	Presenter
Leonardo Villalba Ferrer	6/17/22, 10:34:22 AM	6/17/22, 12:20:34 PM	1h 43m 49s	Leonardo.Villalba@jala-foundation.org	Leonardo.Villalba@jala-foundation.org	Presenter
Martin Gonzalez Torrilla	6/17/22, 10:34:26 AM	6/17/22, 12:20:35 PM	1h 46m 9s	Martin.Gonzalez@jala-foundation.org	Martin.Gonzalez@jala-foundation.org	Presenter
Luis Becerra Vazquez	6/17/22, 10:34:34 AM	6/17/22, 12:20:33 PM	1h 45m 59s	Luis.Becerra@jala-foundation.org	Luis.Becerra@jala-foundation.org	Presenter
Martin Pavesio Sabini	6/17/22, 10:34:39 AM	6/17/22, 12:20:39 PM	1h 46m	Martin.Pavesio@jala-foundation.org	Martin.Pavesio@jala-foundation.org	Presenter
Cesar Illanes Argote	6/17/22, 10:35:11 AM	6/17/22, 10:59:36 AM	24m 25s	Cesar.Illanes@jala-foundation.org	Cesar.Illanes@jala-foundation.org	Presenter

3. In-Meeting activities
Name	Join time	Leave time	Duration	Email	Role
Maria Marquina Guevara	6/17/22, 10:29:37 AM	6/17/22, 12:20:35 PM	1h 50m 57s	Maria.Marquina@fundacion-jala.org	Organizer
Joaquin Aman Alvarez	6/17/22, 10:33:17 AM	6/17/22, 12:20:38 PM	1h 47m 20s	Joaquin.Aman@jala-foundation.org	Presenter
Kevin Cardenas Rodriguez	6/17/22, 10:34:21 AM	6/17/22, 12:20:36 PM	1h 46m 14s	Kevin.Cardenas@jala-foundation.org	Presenter
Leonardo Villalba Ferrer	6/17/22, 10:34:22 AM	6/17/22, 10:42:08 AM	7m 45s	Leonardo.Villalba@jala-foundation.org	Presenter
Leonardo Villalba Ferrer	6/17/22, 10:44:30 AM	6/17/22, 12:20:34 PM	1h 36m 4s	Leonardo.Villalba@jala-foundation.org	Presenter
Martin Gonzalez Torrilla	6/17/22, 10:34:26 AM	6/17/22, 12:20:35 PM	1h 46m 9s	Martin.Gonzalez@jala-foundation.org	Presenter
Luis Becerra Vazquez	6/17/22, 10:34:34 AM	6/17/22, 12:20:33 PM	1h 45m 59s	Luis.Becerra@jala-foundation.org	Presenter
Martin Pavesio Sabini	6/17/22, 10:34:39 AM	6/17/22, 12:20:39 PM	1h 46m	Martin.Pavesio@jala-foundation.org	Presenter
Cesar Illanes Argote	6/17/22, 10:35:11 AM	6/17/22, 10:59:36 AM	24m 25s	Cesar.Illanes@jala-foundation.org	Presenter
